%YAML 1.1
%TAG !u! tag:unity3d.com,2011:
--- !u!114 &11400000
MonoBehaviour:
  m_ObjectHideFlags: 0
  m_CorrespondingSourceObject: {fileID: 0}
  m_PrefabInstance: {fileID: 0}
  m_PrefabAsset: {fileID: 0}
  m_GameObject: {fileID: 0}
  m_Enabled: 1
  m_EditorHideFlags: 0
  m_Script: {fileID: 11500000, guid: e7c83fa0c7d749699f3d5bdad9994f7a, type: 3}
  m_Name: Config
  m_EditorClassIdentifier: 
  title: Tutorial|KILL_ENEMY
  icon: {fileID: 21300000, guid: de272b603f4f54a3fa149cd19dca14e3, type: 3}
